<?xml version="1.0" encoding="utf-8"?>
<!-- Generator: Adobe Illustrator 16.0.0, SVG Export Plug-In . SVG Version: 6.00 Build 0)  -->
<!DOCTYPE svg PUBLIC "-//W3C//DTD SVG 1.1//EN" "http://www.w3.org/Graphics/SVG/1.1/DTD/svg11.dtd">
<svg version="1.1" id="Layer_1" xmlns="http://www.w3.org/2000/svg" xmlns:xlink="http://www.w3.org/1999/xlink" x="0px" y="0px"
	 width="298.179px" height="249.373px" viewBox="0 0 298.179 249.373" enable-background="new 0 0 298.179 249.373"
	 xml:space="preserve">
<polygon fill="#FDD836" points="227.41,206.195 170.076,249.373 0,125.862 168.743,0.195 227.41,42.529 113.264,124.656 "/>
<polygon fill="#F9A823" points="70.77,206.195 128.103,249.373 298.181,125.861 129.436,0.195 70.77,42.529 184.914,124.655 "/>
<circle fill="#274757" cx="149.478" cy="123.963" r="60.056"/>
<circle fill="#FFFFFF" cx="148.54" cy="125.527" r="37.743"/>
<path fill="#274757" d="M149.479,82.69c-22.795,0-41.273,18.479-41.273,41.272c0,22.805,18.479,41.273,41.273,41.273
	c22.794,0,41.272-18.469,41.272-41.273C190.751,101.17,172.272,82.69,149.479,82.69z M157.842,147.862c-0.467,0-0.941,0-1.416,0
	v10.642h-6.516v-10.642c-1.45,0-2.908,0-4.342,0v10.642h-6.517v-10.642c-7.138,0-12.601,0-12.601,0l0.216-6.845c0,0,3.693,0,4.997,0
	c1.303,0,2.502-0.76,2.502-3.15c0-2.39,0-27.152,0-28.888c0-1.743-1.086-2.391-3.262-2.391c-2.175,0-4.885,0-4.885,0v-6.74
	c0,0,6.257,0,13.032,0V89.423h6.517v10.426c1.545,0,3.02,0,4.342,0V89.423h6.516v10.555c6.637,0.562,14.914,3.203,15.863,10.193
	c1.088,8.044-5.438,11.299-5.438,11.299s8.804,2.062,8.804,10.97C175.655,141.346,171.202,147.862,157.842,147.862z"/>
<path fill="#274757" d="M153.932,126.466c-1.951,0-3.263,0-3.263,0h-5.101v13.896c0.707,0,2.537,0,7.172,0
	c6.948,0,10.314-2.814,10.314-8.036C163.055,127.122,155.882,126.466,153.932,126.466z"/>
<path fill="#274757" d="M159.904,112.89c0-5.325-6.404-5.86-9.666-5.86c-2.349,0-3.953,0-4.67,0v12.757h8.621
	C156.461,119.476,159.904,117.688,159.904,112.89z"/>
</svg>
