<?xml version="1.0" encoding="utf-8"?>
<!-- Generator: Adobe Illustrator 16.0.0, SVG Export Plug-In . SVG Version: 6.00 Build 0)  -->
<!DOCTYPE svg PUBLIC "-//W3C//DTD SVG 1.1//EN" "http://www.w3.org/Graphics/SVG/1.1/DTD/svg11.dtd">
<svg version="1.1" id="Layer_1" xmlns="http://www.w3.org/2000/svg" xmlns:xlink="http://www.w3.org/1999/xlink" x="0px" y="0px"
	 width="193.854px" height="44.264px" viewBox="0 0 193.854 44.264" enable-background="new 0 0 193.854 44.264"
	 xml:space="preserve">
<rect x="0" y="0" fill="#FBAB19" width="193.854" height="44.264"/>
<g>
	<path fill="#FFFFFF" d="M60.539,26.501h-1.142v-6.576c0-0.52,0.032-1.155,0.096-1.907h-0.027c-0.109,0.442-0.208,0.759-0.294,0.95
		l-3.35,7.533h-0.561l-3.343-7.479c-0.096-0.219-0.194-0.554-0.294-1.005h-0.027c0.037,0.392,0.055,1.032,0.055,1.921v6.563h-1.107
		v-9.803h1.518l3.008,6.836c0.232,0.524,0.383,0.916,0.451,1.176h0.041c0.196-0.538,0.353-0.938,0.472-1.203l3.069-6.809h1.436
		V26.501z"/>
	<path fill="#FFFFFF" d="M68.592,23.281h-4.942c0.018,0.779,0.228,1.381,0.629,1.805s0.953,0.636,1.654,0.636
		c0.789,0,1.513-0.26,2.174-0.779v1.053c-0.615,0.446-1.429,0.67-2.44,0.67c-0.989,0-1.766-0.317-2.331-0.954
		c-0.565-0.635-0.848-1.529-0.848-2.683c0-1.089,0.309-1.977,0.926-2.663c0.618-0.686,1.384-1.028,2.3-1.028
		s1.625,0.296,2.126,0.889s0.752,1.415,0.752,2.468V23.281z M67.443,22.331c-0.004-0.647-0.161-1.15-0.468-1.511
		s-0.735-0.54-1.282-0.54c-0.529,0-0.978,0.189-1.347,0.567s-0.597,0.873-0.684,1.483H67.443z"/>
	<path fill="#FFFFFF" d="M73.937,20.636c-0.196-0.15-0.479-0.226-0.848-0.226c-0.479,0-0.878,0.226-1.2,0.677
		s-0.482,1.066-0.482,1.846v3.568h-1.121v-7h1.121v1.442h0.027c0.16-0.492,0.403-0.876,0.731-1.152
		c0.328-0.275,0.695-0.413,1.101-0.413c0.292,0,0.515,0.032,0.67,0.096V20.636z"/>
	<path fill="#FFFFFF" d="M79.926,26.18c-0.538,0.323-1.176,0.485-1.914,0.485c-0.998,0-1.804-0.325-2.417-0.974
		c-0.613-0.65-0.919-1.492-0.919-2.526c0-1.153,0.331-2.079,0.991-2.778c0.661-0.7,1.542-1.05,2.646-1.05
		c0.615,0,1.158,0.114,1.627,0.342v1.148c-0.52-0.364-1.076-0.547-1.668-0.547c-0.715,0-1.302,0.257-1.76,0.769
		c-0.458,0.514-0.687,1.187-0.687,2.021c0,0.82,0.215,1.468,0.646,1.941s1.008,0.711,1.733,0.711c0.611,0,1.185-0.203,1.723-0.608
		V26.18z"/>
	<path fill="#FFFFFF" d="M86.632,26.501H85.51v-1.094h-0.027c-0.488,0.839-1.206,1.258-2.153,1.258
		c-0.697,0-1.243-0.185-1.637-0.554s-0.591-0.859-0.591-1.47c0-1.308,0.77-2.069,2.311-2.283l2.099-0.294
		c0-1.189-0.481-1.784-1.442-1.784c-0.843,0-1.604,0.287-2.283,0.861v-1.148c0.688-0.438,1.481-0.656,2.379-0.656
		c1.645,0,2.468,0.87,2.468,2.611V26.501z M85.51,22.96l-1.688,0.232c-0.52,0.073-0.912,0.202-1.176,0.386
		c-0.264,0.186-0.396,0.512-0.396,0.981c0,0.342,0.122,0.621,0.366,0.837c0.244,0.217,0.568,0.325,0.974,0.325
		c0.556,0,1.015-0.194,1.377-0.585c0.362-0.389,0.543-0.883,0.543-1.479V22.96z"/>
	<path fill="#FFFFFF" d="M94.719,26.501h-1.121v-1.189H93.57c-0.52,0.902-1.322,1.354-2.406,1.354c-0.879,0-1.583-0.313-2.109-0.94
		c-0.526-0.626-0.79-1.479-0.79-2.56c0-1.157,0.292-2.085,0.875-2.782s1.36-1.046,2.331-1.046c0.961,0,1.661,0.378,2.099,1.135
		h0.027v-4.334h1.121V26.501z M93.597,23.336v-1.032c0-0.565-0.187-1.044-0.561-1.436s-0.848-0.588-1.422-0.588
		c-0.684,0-1.221,0.251-1.613,0.752s-0.588,1.194-0.588,2.078c0,0.807,0.188,1.443,0.564,1.911c0.376,0.467,0.881,0.7,1.514,0.7
		c0.625,0,1.131-0.226,1.521-0.677S93.597,24.025,93.597,23.336z"/>
	<path fill="#FFFFFF" d="M99.914,26.665c-1.034,0-1.86-0.327-2.479-0.981c-0.617-0.653-0.926-1.521-0.926-2.601
		c0-1.176,0.321-2.094,0.964-2.755s1.511-0.991,2.604-0.991c1.044,0,1.858,0.321,2.443,0.964c0.586,0.643,0.879,1.533,0.879,2.673
		c0,1.116-0.315,2.011-0.947,2.683C101.822,26.329,100.975,26.665,99.914,26.665z M99.996,20.281c-0.72,0-1.29,0.245-1.709,0.735
		c-0.419,0.489-0.629,1.165-0.629,2.026c0,0.829,0.212,1.483,0.636,1.962s0.991,0.718,1.702,0.718c0.725,0,1.281-0.234,1.672-0.704
		c0.389-0.47,0.584-1.137,0.584-2.003c0-0.875-0.195-1.55-0.584-2.023C101.277,20.518,100.72,20.281,99.996,20.281z"/>
</g>
<g>
	<polygon fill="#FFFFFF" points="32.386,16.499 31.653,16.499 31.653,37.563 35.59,37.563 35.59,12.653 35.499,12.653 	"/>
	<polygon fill="#FFFFFF" points="25.792,17.049 25.792,37.563 29.73,37.563 29.73,16.592 26.157,16.774 	"/>
	<polygon fill="#FFFFFF" points="19.656,37.563 23.685,37.563 23.685,18.607 19.656,21.446 	"/>
	<polygon fill="#FFFFFF" points="17.549,23.002 15.442,24.559 13.611,22.087 13.794,21.994 13.611,21.994 13.611,37.563 
		17.549,37.563 	"/>
	<path fill="#FFFFFF" d="M26.157,15.034l6.319-0.366l3.113-3.846c0,0.549,0.55,1.007,1.1,1.007s1.007-0.549,1.007-1.1L37.605,7.8
		c0-0.549-0.365-0.917-0.915-1.007C36.599,6.7,36.415,6.7,36.232,6.7H33.3c-0.549,0-1.098,0.458-1.098,1.099
		c0,0.55,0.457,1.099,1.098,1.099l-2.379,2.931l-5.862,0.366l-11.448,8.242l1.74,2.473L26.157,15.034z"/>
</g>
<g opacity="0.1">
	<path fill="#FFFFFF" d="M193.816,14.891c-2.779-6.052-8.835-10.22-15.878-10.22c-9.629,0-17.468,7.839-17.468,17.465
		c0,9.625,7.839,17.466,17.468,17.466c7.043,0,13.099-4.167,15.878-10.222V14.891z M181.411,32.257h-0.596v4.467h-2.779v-4.467
		h-1.786v4.467h-2.778v-4.467c-2.978,0-5.358,0-5.358,0l0.099-2.876c0,0,1.587,0,2.084,0c0.594,0,1.092-0.297,1.092-1.292V15.785
		c0-0.695-0.498-0.992-1.389-0.992c-0.894,0-2.084,0-2.084,0v-2.877c0,0,2.678,0,5.458,0V7.55h2.776v4.366h1.789V7.55h2.777v4.465
		c2.779,0.198,6.351,1.389,6.748,4.268c0.496,3.374-2.281,4.762-2.281,4.762s3.671,0.895,3.671,4.664
		C188.953,29.48,187.066,32.257,181.411,32.257z"/>
	<path fill="#FFFFFF" d="M179.823,23.229c-0.794,0-1.392,0-1.392,0h-2.182v5.855c0.298,0,1.091,0,3.077,0
		c2.976,0,4.366-1.193,4.366-3.376C183.693,23.426,180.616,23.229,179.823,23.229z"/>
	<path fill="#FFFFFF" d="M182.302,17.472c0-2.281-2.679-2.482-4.067-2.482c-0.993,0-1.688,0-1.985,0v5.359h3.672
		C180.915,20.251,182.302,19.457,182.302,17.472z"/>
	<path fill="#FFFFFF" d="M193.816,6.456V3.678c-1.688-1.389-3.475-2.678-5.56-3.571h-6.748
		C186.274,0.899,190.539,3.183,193.816,6.456z"/>
	<path fill="#FFFFFF" d="M193.816,37.817c-3.475,3.475-8.039,5.856-13.101,6.45h7.342c2.086-0.994,4.07-2.184,5.759-3.672V37.817z"
		/>
	<path fill="#FFFFFF" d="M167.815,44.267h7.343c-11.016-1.39-19.551-10.718-19.551-22.13c0-11.114,8.14-20.344,18.758-22.03h-6.749
		c-8.237,3.869-13.994,12.305-13.994,22.03C153.622,31.96,159.478,40.396,167.815,44.267z"/>
</g>
</svg>
