<?xml version="1.0" encoding="utf-8"?>
<!-- Generator: Adobe Illustrator 16.0.0, SVG Export Plug-In . SVG Version: 6.00 Build 0)  -->
<!DOCTYPE svg PUBLIC "-//W3C//DTD SVG 1.1//EN" "http://www.w3.org/Graphics/SVG/1.1/DTD/svg11.dtd">
<svg version="1.1" id="Layer_1" xmlns="http://www.w3.org/2000/svg" xmlns:xlink="http://www.w3.org/1999/xlink" x="0px" y="0px"
	 width="193.854px" height="44.264px" viewBox="0 0 193.854 44.264" enable-background="new 0 0 193.854 44.264"
	 xml:space="preserve">
<rect x="0" y="0" fill="#41602D" width="193.854" height="44.264"/>
<g>
	<path fill="#FFFFFF" d="M57.572,26.501h-1.367l-1.641-2.748c-0.15-0.255-0.296-0.473-0.438-0.653
		c-0.141-0.18-0.286-0.326-0.434-0.44s-0.308-0.197-0.479-0.249c-0.171-0.053-0.363-0.079-0.578-0.079h-0.943v4.17h-1.148v-9.803
		h2.926c0.428,0,0.824,0.054,1.186,0.161c0.362,0.106,0.677,0.27,0.943,0.488s0.475,0.491,0.625,0.816
		c0.15,0.326,0.226,0.708,0.226,1.146c0,0.342-0.051,0.655-0.154,0.94c-0.103,0.284-0.249,0.538-0.438,0.762
		s-0.417,0.414-0.684,0.57c-0.267,0.158-0.566,0.279-0.899,0.366v0.027c0.164,0.073,0.307,0.156,0.427,0.249
		c0.121,0.094,0.236,0.204,0.345,0.332s0.218,0.272,0.325,0.434c0.107,0.162,0.227,0.351,0.359,0.564L57.572,26.501z M51.693,17.738
		v3.555h1.559c0.287,0,0.553-0.043,0.796-0.13s0.455-0.211,0.632-0.373c0.178-0.161,0.317-0.359,0.417-0.594
		c0.1-0.235,0.15-0.498,0.15-0.79c0-0.524-0.17-0.933-0.509-1.228c-0.339-0.293-0.831-0.44-1.473-0.44H51.693z"/>
	<path fill="#FFFFFF" d="M64.394,23.281h-4.942c0.018,0.779,0.228,1.381,0.629,1.805s0.953,0.636,1.654,0.636
		c0.789,0,1.513-0.26,2.174-0.779v1.053c-0.615,0.446-1.429,0.67-2.44,0.67c-0.989,0-1.766-0.317-2.331-0.954
		c-0.565-0.635-0.848-1.529-0.848-2.683c0-1.089,0.309-1.977,0.926-2.663c0.618-0.686,1.384-1.028,2.3-1.028
		s1.625,0.296,2.126,0.889s0.752,1.415,0.752,2.468V23.281z M63.246,22.331c-0.004-0.647-0.161-1.15-0.468-1.511
		s-0.735-0.54-1.282-0.54c-0.529,0-0.978,0.189-1.347,0.567s-0.597,0.873-0.684,1.483H63.246z"/>
	<path fill="#FFFFFF" d="M70.861,26.18c-0.538,0.323-1.176,0.485-1.914,0.485c-0.998,0-1.804-0.325-2.417-0.974
		c-0.613-0.65-0.919-1.492-0.919-2.526c0-1.153,0.331-2.079,0.991-2.778c0.661-0.7,1.542-1.05,2.646-1.05
		c0.615,0,1.158,0.114,1.627,0.342v1.148c-0.52-0.364-1.076-0.547-1.668-0.547c-0.715,0-1.302,0.257-1.76,0.769
		c-0.458,0.514-0.687,1.187-0.687,2.021c0,0.82,0.215,1.468,0.646,1.941s1.008,0.711,1.733,0.711c0.611,0,1.185-0.203,1.723-0.608
		V26.18z"/>
	<path fill="#FFFFFF" d="M78.182,23.281H73.24c0.018,0.779,0.228,1.381,0.629,1.805s0.953,0.636,1.654,0.636
		c0.789,0,1.513-0.26,2.174-0.779v1.053c-0.615,0.446-1.429,0.67-2.44,0.67c-0.989,0-1.766-0.317-2.331-0.954
		c-0.565-0.635-0.848-1.529-0.848-2.683c0-1.089,0.309-1.977,0.926-2.663c0.618-0.686,1.384-1.028,2.3-1.028
		s1.625,0.296,2.126,0.889s0.752,1.415,0.752,2.468V23.281z M77.034,22.331c-0.004-0.647-0.161-1.15-0.468-1.511
		s-0.735-0.54-1.282-0.54c-0.529,0-0.978,0.189-1.347,0.567s-0.597,0.873-0.684,1.483H77.034z"/>
	<path fill="#FFFFFF" d="M81.026,25.49h-0.027v1.012h-1.121V16.138h1.121v4.594h0.027c0.551-0.93,1.358-1.395,2.42-1.395
		c0.898,0,1.601,0.313,2.109,0.94c0.508,0.626,0.762,1.466,0.762,2.519c0,1.171-0.285,2.108-0.854,2.813
		c-0.57,0.703-1.349,1.056-2.338,1.056C82.199,26.665,81.5,26.274,81.026,25.49z M80.999,22.666v0.978
		c0,0.579,0.188,1.069,0.564,1.474c0.376,0.402,0.854,0.604,1.432,0.604c0.679,0,1.211-0.26,1.596-0.779s0.578-1.242,0.578-2.167
		c0-0.779-0.18-1.39-0.54-1.832s-0.848-0.663-1.463-0.663c-0.652,0-1.176,0.227-1.572,0.681
		C81.197,21.414,80.999,21.983,80.999,22.666z"/>
	<path fill="#FFFFFF" d="M93.734,23.281h-4.942c0.018,0.779,0.228,1.381,0.629,1.805s0.953,0.636,1.654,0.636
		c0.789,0,1.513-0.26,2.174-0.779v1.053c-0.615,0.446-1.429,0.67-2.44,0.67c-0.989,0-1.766-0.317-2.331-0.954
		c-0.565-0.635-0.848-1.529-0.848-2.683c0-1.089,0.309-1.977,0.926-2.663c0.618-0.686,1.384-1.028,2.3-1.028
		s1.625,0.296,2.126,0.889s0.752,1.415,0.752,2.468V23.281z M92.586,22.331c-0.004-0.647-0.161-1.15-0.468-1.511
		s-0.735-0.54-1.282-0.54c-0.529,0-0.978,0.189-1.347,0.567s-0.597,0.873-0.684,1.483H92.586z"/>
	<path fill="#FFFFFF" d="M99.08,20.636c-0.196-0.15-0.479-0.226-0.848-0.226c-0.479,0-0.879,0.226-1.199,0.677
		c-0.322,0.451-0.482,1.066-0.482,1.846v3.568h-1.121v-7h1.121v1.442h0.027c0.159-0.492,0.403-0.876,0.731-1.152
		c0.328-0.275,0.695-0.413,1.101-0.413c0.292,0,0.515,0.032,0.67,0.096V20.636z"/>
</g>
<g opacity="0.06">
	<path fill="#FFFFFF" d="M193.816,14.891c-2.779-6.052-8.835-10.22-15.878-10.22c-9.629,0-17.468,7.839-17.468,17.465
		c0,9.625,7.839,17.466,17.468,17.466c7.043,0,13.099-4.167,15.878-10.222V14.891z M181.411,32.257h-0.596v4.467h-2.779v-4.467
		h-1.786v4.467h-2.778v-4.467c-2.978,0-5.358,0-5.358,0l0.099-2.876c0,0,1.587,0,2.084,0c0.594,0,1.092-0.297,1.092-1.292V15.785
		c0-0.695-0.498-0.992-1.389-0.992c-0.894,0-2.084,0-2.084,0v-2.877c0,0,2.678,0,5.458,0V7.55h2.776v4.366h1.789V7.55h2.777v4.465
		c2.779,0.198,6.351,1.389,6.748,4.268c0.496,3.374-2.281,4.762-2.281,4.762s3.671,0.895,3.671,4.664
		C188.953,29.48,187.066,32.257,181.411,32.257z"/>
	<path fill="#FFFFFF" d="M179.823,23.229c-0.794,0-1.392,0-1.392,0h-2.182v5.855c0.298,0,1.091,0,3.077,0
		c2.976,0,4.366-1.193,4.366-3.376C183.693,23.426,180.616,23.229,179.823,23.229z"/>
	<path fill="#FFFFFF" d="M182.302,17.472c0-2.281-2.679-2.482-4.067-2.482c-0.993,0-1.688,0-1.985,0v5.359h3.672
		C180.915,20.251,182.302,19.457,182.302,17.472z"/>
	<path fill="#FFFFFF" d="M193.816,6.456V3.678c-1.688-1.389-3.475-2.678-5.56-3.571h-6.748
		C186.274,0.899,190.539,3.183,193.816,6.456z"/>
	<path fill="#FFFFFF" d="M193.816,37.817c-3.475,3.475-8.039,5.856-13.101,6.45h7.342c2.086-0.994,4.07-2.184,5.759-3.672V37.817z"
		/>
	<path fill="#FFFFFF" d="M167.815,44.267h7.343c-11.016-1.39-19.551-10.718-19.551-22.13c0-11.114,8.14-20.344,18.758-22.03h-6.749
		c-8.237,3.869-13.994,12.305-13.994,22.03C153.622,31.96,159.478,40.396,167.815,44.267z"/>
</g>
<g>
	<path fill="#FFFFFF" d="M37.343,12.497c0.269-2.335-0.27-3.502-0.27-3.502c-8.263-7.186-24.609,7.814-26.854,22.544
		C17.583,11.33,36.353,10.252,37.343,12.497z"/>
	<path fill="#FFFFFF" d="M37.073,8.995c0,0,0.629,0.718,1.347,1.886C38.15,10.342,37.702,9.713,37.073,8.995z"/>
	<path fill="#FFFFFF" d="M37.343,12.497c-0.18,1.527-0.809,3.502-2.246,6.018c-3.681,6.288-7.095,8.352-7.095,8.352l-0.987-2.873
		l-7.006,13.292l14.46-5.029l-2.335-1.347c0,0,6.018-5.03,8.084-10.419c1.437-3.502-0.45-7.365-1.797-9.52
		c-0.718-1.167-1.347-1.976-1.347-1.976S37.552,10.195,37.343,12.497z"/>
</g>
</svg>
