<?xml version="1.0" encoding="utf-8"?>
<!-- Generator: Adobe Illustrator 16.0.0, SVG Export Plug-In . SVG Version: 6.00 Build 0)  -->
<!DOCTYPE svg PUBLIC "-//W3C//DTD SVG 1.1//EN" "http://www.w3.org/Graphics/SVG/1.1/DTD/svg11.dtd">
<svg version="1.1" id="Layer_1" xmlns="http://www.w3.org/2000/svg" xmlns:xlink="http://www.w3.org/1999/xlink" x="0px" y="0px"
	 width="193.854px" height="44.264px" viewBox="0 0 193.854 44.264" enable-background="new 0 0 193.854 44.264"
	 xml:space="preserve">
<rect x="0" y="0" fill="#223C4B" width="193.854" height="44.264"/>
<g>
	<path fill="#FFFFFF" d="M55.74,26.501h-5.195v-9.803h4.977v1.039h-3.828v3.261h3.541v1.032h-3.541v3.432h4.047V26.501z"/>
	<path fill="#FFFFFF" d="M63.287,26.501h-1.121v-3.992c0-1.485-0.542-2.229-1.627-2.229c-0.561,0-1.024,0.211-1.391,0.632
		c-0.367,0.422-0.55,0.954-0.55,1.597v3.992h-1.121v-7h1.121v1.162h0.027c0.529-0.884,1.294-1.326,2.297-1.326
		c0.766,0,1.351,0.247,1.757,0.741c0.406,0.495,0.608,1.209,0.608,2.144V26.501z"/>
	<path fill="#FFFFFF" d="M70.902,19.501l-2.789,7h-1.101l-2.652-7h1.23l1.777,5.086c0.132,0.374,0.214,0.699,0.246,0.978h0.027
		c0.045-0.351,0.119-0.668,0.219-0.95l1.859-5.113H70.902z"/>
	<path fill="#FFFFFF" d="M72.679,17.724c-0.201,0-0.372-0.068-0.513-0.205s-0.212-0.31-0.212-0.52s0.071-0.384,0.212-0.522
		c0.141-0.14,0.312-0.209,0.513-0.209c0.205,0,0.379,0.069,0.523,0.209c0.144,0.139,0.215,0.313,0.215,0.522
		c0,0.2-0.072,0.371-0.215,0.513S72.885,17.724,72.679,17.724z M73.226,26.501h-1.121v-7h1.121V26.501z"/>
	<path fill="#FFFFFF" d="M80.507,26.501h-1.121v-1.094h-0.027c-0.488,0.839-1.206,1.258-2.153,1.258
		c-0.697,0-1.243-0.185-1.637-0.554s-0.591-0.859-0.591-1.47c0-1.308,0.77-2.069,2.311-2.283l2.099-0.294
		c0-1.189-0.481-1.784-1.442-1.784c-0.843,0-1.604,0.287-2.283,0.861v-1.148c0.688-0.438,1.481-0.656,2.379-0.656
		c1.645,0,2.468,0.87,2.468,2.611V26.501z M79.385,22.96l-1.688,0.232c-0.52,0.073-0.912,0.202-1.176,0.386
		c-0.264,0.186-0.396,0.512-0.396,0.981c0,0.342,0.122,0.621,0.366,0.837c0.244,0.217,0.568,0.325,0.974,0.325
		c0.556,0,1.015-0.194,1.377-0.585c0.362-0.389,0.543-0.883,0.543-1.479V22.96z"/>
	<path fill="#FFFFFF" d="M86.269,20.636c-0.196-0.15-0.479-0.226-0.848-0.226c-0.479,0-0.878,0.226-1.2,0.677
		s-0.482,1.066-0.482,1.846v3.568h-1.121v-7h1.121v1.442h0.027c0.16-0.492,0.403-0.876,0.731-1.152
		c0.328-0.275,0.695-0.413,1.101-0.413c0.292,0,0.515,0.032,0.67,0.096V20.636z"/>
</g>
<g opacity="0.06">
	<path fill="#FFFFFF" d="M193.816,14.891c-2.779-6.052-8.835-10.22-15.878-10.22c-9.629,0-17.468,7.839-17.468,17.465
		c0,9.625,7.839,17.466,17.468,17.466c7.043,0,13.099-4.167,15.878-10.222V14.891z M181.411,32.257h-0.596v4.467h-2.779v-4.467
		h-1.786v4.467h-2.778v-4.467c-2.978,0-5.358,0-5.358,0l0.099-2.876c0,0,1.587,0,2.084,0c0.594,0,1.092-0.297,1.092-1.292V15.785
		c0-0.695-0.498-0.992-1.389-0.992c-0.894,0-2.084,0-2.084,0v-2.877c0,0,2.678,0,5.458,0V7.55h2.776v4.366h1.789V7.55h2.777v4.465
		c2.779,0.198,6.351,1.389,6.748,4.268c0.496,3.374-2.281,4.762-2.281,4.762s3.671,0.895,3.671,4.664
		C188.953,29.48,187.066,32.257,181.411,32.257z"/>
	<path fill="#FFFFFF" d="M179.823,23.229c-0.794,0-1.392,0-1.392,0h-2.182v5.855c0.298,0,1.091,0,3.077,0
		c2.976,0,4.366-1.193,4.366-3.376C183.693,23.426,180.616,23.229,179.823,23.229z"/>
	<path fill="#FFFFFF" d="M182.302,17.472c0-2.281-2.679-2.482-4.067-2.482c-0.993,0-1.688,0-1.985,0v5.359h3.672
		C180.915,20.251,182.302,19.457,182.302,17.472z"/>
	<path fill="#FFFFFF" d="M193.816,6.456V3.678c-1.688-1.389-3.475-2.678-5.56-3.571h-6.748
		C186.274,0.899,190.539,3.183,193.816,6.456z"/>
	<path fill="#FFFFFF" d="M193.816,37.817c-3.475,3.475-8.039,5.856-13.101,6.45h7.342c2.086-0.994,4.07-2.184,5.759-3.672V37.817z"
		/>
	<path fill="#FFFFFF" d="M167.815,44.267h7.343c-11.016-1.39-19.551-10.718-19.551-22.13c0-11.114,8.14-20.344,18.758-22.03h-6.749
		c-8.237,3.869-13.994,12.305-13.994,22.03C153.622,31.96,159.478,40.396,167.815,44.267z"/>
</g>
<g>
	<path fill="#FFFFFF" d="M13.327,32.123c-0.273,2.374,0.274,3.564,0.274,3.564c8.316,7.401,25.039-7.86,27.233-22.938
		C33.432,33.312,14.424,34.497,13.327,32.123z"/>
	<path fill="#FFFFFF" d="M13.601,35.688c0,0-0.64-0.732-1.371-1.921C12.504,34.315,12.962,34.955,13.601,35.688z"/>
	<path fill="#FFFFFF" d="M13.327,32.123C13.51,30.57,14.15,28.558,15.612,26c3.747-6.397,7.219-8.5,7.219-8.5l1.005,2.924
		L30.965,6.9l-14.713,5.118l2.376,1.371c0,0-6.124,5.118-8.225,10.601c-1.462,3.564,0.457,7.494,1.828,9.688
		c0.731,1.188,1.371,1.919,1.371,1.919S13.053,34.497,13.327,32.123z"/>
</g>
</svg>
