<?xml version="1.0" encoding="utf-8"?>
<!-- Generator: Adobe Illustrator 18.0.0, SVG Export Plug-In . SVG Version: 6.00 Build 0)  -->
<!DOCTYPE svg PUBLIC "-//W3C//DTD SVG 1.1//EN" "http://www.w3.org/Graphics/SVG/1.1/DTD/svg11.dtd">
<svg version="1.1" id="Camada_1" xmlns="http://www.w3.org/2000/svg" xmlns:xlink="http://www.w3.org/1999/xlink" x="0px" y="0px"
	 viewBox="0 0 192 44.3" enable-background="new 0 0 192 44.3" xml:space="preserve">
<rect y="0.1" fill="#223C4B" width="192" height="44.3"/>
<g opacity="6.000000e-002">
	<path fill="#FFFFFF" d="M192.2,14.9c-2.8-6.1-8.9-10.3-16-10.3c-9.7,0-17.6,7.9-17.6,17.6c0,9.7,7.9,17.6,17.6,17.6
		c7.1,0,13.2-4.2,16-10.3V14.9z M179.7,32.4h-0.6v4.5h-2.8v-4.5h-1.8v4.5h-2.8v-4.5c-3,0-5.4,0-5.4,0l0.1-2.9c0,0,1.6,0,2.1,0
		c0.6,0,1.1-0.3,1.1-1.3V15.8c0-0.7-0.5-1-1.4-1c-0.9,0-2.1,0-2.1,0v-2.9c0,0,2.7,0,5.5,0V7.5h2.8v4.4h1.8V7.5h2.8V12
		c2.8,0.2,6.4,1.4,6.8,4.3c0.5,3.4-2.3,4.8-2.3,4.8s3.7,0.9,3.7,4.7C187.3,29.6,185.4,32.4,179.7,32.4z"/>
	<path fill="#FFFFFF" d="M178.1,23.3c-0.8,0-1.4,0-1.4,0h-2.2v5.9c0.3,0,1.1,0,3.1,0c3,0,4.4-1.2,4.4-3.4
		C182,23.5,178.9,23.3,178.1,23.3z"/>
	<path fill="#FFFFFF" d="M180.6,17.5c0-2.3-2.7-2.5-4.1-2.5c-1,0-1.7,0-2,0v5.4h3.7C179.2,20.3,180.6,19.5,180.6,17.5z"/>
	<path fill="#FFFFFF" d="M192.2,6.4V3.6c-1.7-1.4-3.5-2.7-5.6-3.6h-6.8C184.6,0.8,188.9,3.1,192.2,6.4z"/>
	<path fill="#FFFFFF" d="M192.2,38c-3.5,3.5-8.1,5.9-13.2,6.5h7.4c2.1-1,4.1-2.2,5.8-3.7V38z"/>
	<path fill="#FFFFFF" d="M166,44.5h7.4c-11.1-1.4-19.7-10.8-19.7-22.3c0-11.2,8.2-20.5,18.9-22.2h-6.8c-8.3,3.9-14.1,12.4-14.1,22.2
		C151.7,32.1,157.6,40.6,166,44.5z"/>
</g>
<g>
	<path fill="#FFFFFF" d="M57.6,27.2h-5.2v-9.8h5v1h-3.8v3.3h3.5v1h-3.5v3.4h4V27.2z"/>
	<path fill="#FFFFFF" d="M65.1,27.2H64v-4c0-1.5-0.5-2.2-1.6-2.2c-0.6,0-1,0.2-1.4,0.6s-0.6,1-0.6,1.6v4h-1.1v-7h1.1v1.2h0
		c0.5-0.9,1.3-1.3,2.3-1.3c0.8,0,1.4,0.2,1.8,0.7s0.6,1.2,0.6,2.1V27.2z"/>
	<path fill="#FFFFFF" d="M72.8,20.2l-2.8,7h-1.1l-2.7-7h1.2l1.8,5.1c0.1,0.4,0.2,0.7,0.2,1h0c0-0.4,0.1-0.7,0.2-1l1.9-5.1H72.8z"/>
	<path fill="#FFFFFF" d="M74.5,18.5c-0.2,0-0.4-0.1-0.5-0.2s-0.2-0.3-0.2-0.5s0.1-0.4,0.2-0.5s0.3-0.2,0.5-0.2
		c0.2,0,0.4,0.1,0.5,0.2s0.2,0.3,0.2,0.5c0,0.2-0.1,0.4-0.2,0.5S74.7,18.5,74.5,18.5z M75.1,27.2H74v-7h1.1V27.2z"/>
	<path fill="#FFFFFF" d="M82.4,27.2h-1.1v-1.1h0c-0.5,0.8-1.2,1.3-2.2,1.3c-0.7,0-1.2-0.2-1.6-0.6s-0.6-0.9-0.6-1.5
		c0-1.3,0.8-2.1,2.3-2.3l2.1-0.3c0-1.2-0.5-1.8-1.4-1.8c-0.8,0-1.6,0.3-2.3,0.9v-1.1c0.7-0.4,1.5-0.7,2.4-0.7c1.6,0,2.5,0.9,2.5,2.6
		V27.2z M81.2,23.7l-1.7,0.2c-0.5,0.1-0.9,0.2-1.2,0.4s-0.4,0.5-0.4,1c0,0.3,0.1,0.6,0.4,0.8s0.6,0.3,1,0.3c0.6,0,1-0.2,1.4-0.6
		s0.5-0.9,0.5-1.5V23.7z"/>
	<path fill="#FFFFFF" d="M88.1,21.4c-0.2-0.2-0.5-0.2-0.8-0.2c-0.5,0-0.9,0.2-1.2,0.7s-0.5,1.1-0.5,1.8v3.6h-1.1v-7h1.1v1.4h0
		c0.2-0.5,0.4-0.9,0.7-1.2s0.7-0.4,1.1-0.4c0.3,0,0.5,0,0.7,0.1V21.4z"/>
</g>
<g>
	<path fill="#FFFFFF" d="M13.3,33c-0.3,2.6,0.3,3.9,0.3,3.9c9.1,8.1,27.4-8.6,29.8-25.1C35.3,34.3,14.5,35.6,13.3,33z"/>
	<path fill="#FFFFFF" d="M13.6,36.9c0,0-0.7-0.8-1.5-2.1C12.4,35.4,12.9,36.1,13.6,36.9z"/>
	<path fill="#FFFFFF" d="M13.3,33c0.2-1.7,0.9-3.9,2.5-6.7c4.1-7,7.9-9.3,7.9-9.3l1.1,3.2l7.8-14.8L16.5,11l2.6,1.5
		c0,0-6.7,5.6-9,11.6c-1.6,3.9,0.5,8.2,2,10.6c0.8,1.3,1.5,2.1,1.5,2.1S13,35.6,13.3,33z"/>
</g>
</svg>
