<?xml version="1.0" encoding="utf-8"?>
<!-- Generator: Adobe Illustrator 18.0.0, SVG Export Plug-In . SVG Version: 6.00 Build 0)  -->
<!DOCTYPE svg PUBLIC "-//W3C//DTD SVG 1.1//EN" "http://www.w3.org/Graphics/SVG/1.1/DTD/svg11.dtd">
<svg version="1.1" id="Camada_1" xmlns="http://www.w3.org/2000/svg" xmlns:xlink="http://www.w3.org/1999/xlink" x="0px" y="0px"
	 viewBox="0 0 95.3 64.1" enable-background="new 0 0 95.3 64.1" xml:space="preserve">
<rect x="0" y="0.1" fill="#42612D" width="95.4" height="64"/>
<g opacity="6.000000e-002">
	<path fill="#FFFFFF" d="M46.3,8.9c-13.1,0-23.7,10.6-23.7,23.7c0,13.1,10.6,23.7,23.7,23.7C59.4,56.2,70,45.6,70,32.5
		C70,19.5,59.4,8.9,46.3,8.9z M51.1,46.2c-0.3,0-0.5,0-0.8,0v6.1h-3.7v-6.1c-0.8,0-1.7,0-2.5,0v6.1h-3.7v-6.1c-4.1,0-7.2,0-7.2,0
		l0.1-3.9c0,0,2.1,0,2.9,0c0.7,0,1.4-0.4,1.4-1.8c0-1.4,0-15.6,0-16.6s-0.6-1.4-1.9-1.4c-1.2,0-2.8,0-2.8,0v-3.9c0,0,3.6,0,7.5,0v-6
		h3.7v6c0.9,0,1.7,0,2.5,0v-6h3.7v6.1c3.8,0.3,8.6,1.8,9.1,5.8c0.6,4.6-3.1,6.5-3.1,6.5s5,1.2,5,6.3C61.3,42.5,58.8,46.2,51.1,46.2z
		"/>
	<path fill="#FFFFFF" d="M48.9,34c-1.1,0-1.9,0-1.9,0h-2.9v8c0.4,0,1.5,0,4.1,0c4,0,5.9-1.6,5.9-4.6C54.1,34.3,50,34,48.9,34z"/>
	<path fill="#FFFFFF" d="M52.3,26.2c0-3.1-3.7-3.4-5.5-3.4c-1.3,0-2.3,0-2.7,0v7.3H49C50.3,30,52.3,28.9,52.3,26.2z"/>
	<path fill="#FFFFFF" d="M52.5,0.1H40.1C24.9,3,13.3,16.4,13.3,32.5c0,15,10,27.6,23.7,31.7h18.6c13.7-4,23.7-16.7,23.7-31.7
		C79.3,16.4,67.8,3,52.5,0.1z M46.3,62.8c-16.7,0-30.3-13.6-30.3-30.3S29.6,2.3,46.3,2.3c16.7,0,30.3,13.6,30.3,30.3
		S63.1,62.8,46.3,62.8z"/>
</g>
<text transform="matrix(1 0 0 1 23.1007 58.1242)" fill="#FFFFFF" font-family="'SegoeUI'" font-size="12">Receber</text>
<g>
	<path fill="#FFFFFF" d="M56,16c0.4-2.8-0.4-4.3-0.4-4.3c-10.1-8.9-30.4,9.6-33.1,27.8C31.6,14.5,54.7,13.2,56,16z"/>
	<path fill="#FFFFFF" d="M55.6,11.7c0,0,0.8,0.9,1.7,2.3C56.9,13.3,56.4,12.5,55.6,11.7z"/>
	<path fill="#FFFFFF" d="M56,16c-0.3,1.9-1,4.3-2.8,7.4c-4.5,7.7-8.7,10.3-8.7,10.3l-1.3-3.5l-8.7,16.4l17.9-6.2l-2.8-1.7
		c0,0,7.4-6.3,10-12.9c1.7-4.4-0.5-9.1-2.3-11.8c-0.9-1.4-1.7-2.3-1.7-2.3S56.4,13.2,56,16z"/>
</g>
</svg>
