<?xml version="1.0" encoding="utf-8"?>
<!-- Generator: Adobe Illustrator 17.1.0, SVG Export Plug-In . SVG Version: 6.00 Build 0)  -->
<!DOCTYPE svg PUBLIC "-//W3C//DTD SVG 1.1//EN" "http://www.w3.org/Graphics/SVG/1.1/DTD/svg11.dtd">
<svg version="1.1" id="Layer_1" xmlns="http://www.w3.org/2000/svg" xmlns:xlink="http://www.w3.org/1999/xlink" x="0px" y="0px"
	 viewBox="0 1095.3 5000 1142.3" enable-background="new 0 1095.3 5000 1142.3" xml:space="preserve">
<rect y="1095.3" fill="#5A887E" width="5000" height="1142.3"/>
<g opacity="6.000000e-002">
	<path fill="#FFFFFF" d="M4997.4,1479.5c-72.2-157.3-226.9-263-410-263c-247.6,0-451.3,201.1-451.3,451.3
		c0,247.6,201.1,451.3,451.3,451.3c180.5,0,337.8-108.3,410-263L4997.4,1479.5L4997.4,1479.5z M4677.7,1928.2h-15.5v116H4590v-116
		h-46.4v116h-72.2v-116c-77.4,0-139.2,0-139.2,0l2.6-74.8c0,0,41.3,0,54.2,0c15.5,0,28.4-7.7,28.4-33.5v-317.2
		c0-18.1-12.9-25.8-36.1-25.8c-23.2,0-54.2,0-54.2,0v-74.8c0,0,69.6,0,141.8,0v-110.9h72.2v113.5h46.4v-113.5h72.2v113.5
		c72.2,5.2,165,36.1,172.8,110.9c12.9,87.7-59.3,123.8-59.3,123.8s95.4,23.2,95.4,121.2C4873.6,1856,4824.7,1928.2,4677.7,1928.2z"
		/>
	<path fill="#FFFFFF" d="M4636.4,1693.6c-20.6,0-36.1,0-36.1,0h-56.7v152.1c7.7,0,28.4,0,79.9,0c77.4,0,113.5-30.9,113.5-87.7
		C4737,1698.7,4657,1693.6,4636.4,1693.6z"/>
	<path fill="#FFFFFF" d="M4700.9,1546.6c0-59.3-69.6-64.5-105.7-64.5c-25.8,0-43.8,0-51.6,0v139.2h95.4
		C4664.8,1618.8,4700.9,1598.2,4700.9,1546.6z"/>
	<path fill="#FFFFFF" d="M4997.4,1262.9v-72.2c-43.8-36.1-90.3-69.6-144.4-92.8h-172.8C4804,1118.5,4912.3,1177.8,4997.4,1262.9z"/>
	<path fill="#FFFFFF" d="M4997.4,2070.1c-90.3,90.3-206.3,152.1-337.8,167.6h188.2c54.2-25.8,105.7-56.7,149.6-95.4V2070.1z"/>
	<path fill="#FFFFFF" d="M4327,2237.7h188.2c-283.7-36.1-505.4-275.9-505.4-569.9c0-286.2,208.9-523.5,484.8-567.3h-172.8
		c-211.4,100.6-361,317.2-361,567.3C3960.8,1920.5,4112.9,2137.1,4327,2237.7z"/>
</g>
<g>
	<path fill="none" stroke="#FFFDFE" stroke-width="14" stroke-miterlimit="10" d="M420.3,1428.2v479.9c0,10.3,8.3,18.6,18.6,18.6
		h397.4c10.3,0,18.6-8.3,18.6-18.6v-350.4c0-14.8-5.9-29-16.3-39.4l-93.5-93.5c-10.5-10.5-24.8-16.4-39.7-16.3l-266.6,1.1
		C428.6,1409.7,420.3,1418,420.3,1428.2z"/>
	<path fill="none" stroke="#FFFDFE" stroke-width="14" stroke-miterlimit="10" d="M693.2,1408.5v138.2c0,11.5,9.4,20.9,20.9,20.9
		H855"/>
	<path fill="#FFFFFF" d="M745.1,1667.6H527c-3.8,0-6.8-3-6.8-6.8v-24.3c0-3.8,3.1-6.8,6.8-6.8h218c3.8,0,6.8,3,6.8,6.8v24.3
		C751.9,1664.5,748.8,1667.6,745.1,1667.6z"/>
	<path fill="#FFFFFF" d="M745.1,1745.9H527c-3.8,0-6.8-3-6.8-6.8v-24.3c0-3.8,3.1-6.8,6.8-6.8h218c3.8,0,6.8,3,6.8,6.8v24.3
		C751.9,1742.9,748.8,1745.9,745.1,1745.9z"/>
	<path fill="#FFFFFF" d="M745.1,1824.3H527c-3.8,0-6.8-3-6.8-6.8v-24.3c0-3.8,3.1-6.8,6.8-6.8h218c3.8,0,6.8,3,6.8,6.8v24.3
		C751.9,1821.2,748.8,1824.3,745.1,1824.3z"/>
</g>
<g>
	<path fill="#FFFFFF" d="M1470.1,1536.9h-73v226.2h-29.6v-226.2h-72.9v-26.8h175.6V1536.9z"/>
	<path fill="#FFFFFF" d="M1615.8,1680h-127.6c0.5,20.1,5.9,35.6,16.2,46.6c10.3,10.9,24.6,16.4,42.7,16.4c20.3,0,39.1-6.7,56.1-20.1
		v27.2c-15.9,11.5-36.9,17.3-63,17.3c-25.5,0-45.6-8.2-60.2-24.6c-14.6-16.4-21.9-39.5-21.9-69.3c0-28.1,8-51,23.9-68.7
		c15.9-17.7,35.7-26.6,59.4-26.6s41.9,7.6,54.9,22.9c12.9,15.3,19.4,36.5,19.4,63.7V1680z M1586.2,1655.5
		c-0.1-16.7-4.1-29.7-12.1-39c-7.9-9.3-19-13.9-33.1-13.9c-13.6,0-25.2,4.9-34.8,14.6c-9.5,9.8-15.4,22.5-17.6,38.3H1586.2z"/>
	<path fill="#FFFFFF" d="M1753.8,1611.8c-5.1-3.9-12.4-5.8-21.9-5.8c-12.4,0-22.7,5.8-31,17.5c-8.3,11.6-12.4,27.5-12.4,47.6v92.1
		h-28.9v-180.7h28.9v37.2h0.7c4.1-12.7,10.4-22.6,18.9-29.7c8.5-7.1,17.9-10.7,28.4-10.7c7.5,0,13.3,0.8,17.3,2.5V1611.8z"/>
	<path fill="#FFFFFF" d="M2041.8,1763.1h-28.9v-103.7c0-20-3.1-34.5-9.3-43.4c-6.2-8.9-16.6-13.4-31.1-13.4
		c-12.4,0-22.8,5.6-31.5,16.9s-13,24.8-13,40.6v103H1899v-107.3c0-35.5-13.7-53.3-41.1-53.3c-12.7,0-23.2,5.3-31.4,16
		c-8.2,10.6-12.4,24.5-12.4,41.6v103h-28.9v-180.7h28.9v28.6h0.7c12.8-21.9,31.5-32.8,56.1-32.8c12.4,0,23.1,3.4,32.3,10.3
		s15.5,15.9,18.9,27.1c13.4-24.9,33.4-37.4,60-37.4c39.8,0,59.6,24.5,59.6,73.6V1763.1z"/>
	<path fill="#FFFFFF" d="M2172,1767.4c-26.7,0-48-8.4-64-25.3c-15.9-16.9-23.9-39.3-23.9-67.1c0-30.3,8.3-54,24.9-71.1
		c16.6-17.1,39-25.6,67.2-25.6c26.9,0,48,8.3,63.1,24.9c15.1,16.6,22.7,39.6,22.7,69c0,28.8-8.1,51.9-24.4,69.3
		C2221.3,1758.7,2199.4,1767.4,2172,1767.4z M2174.1,1602.6c-18.6,0-33.3,6.3-44.1,19c-10.8,12.6-16.2,30.1-16.2,52.3
		c0,21.4,5.5,38.3,16.4,50.6c10.9,12.4,25.6,18.5,43.9,18.5c18.7,0,33.1-6.1,43.1-18.2c10.1-12.1,15.1-29.3,15.1-51.7
		c0-22.6-5-40-15.1-52.2C2207.2,1608.7,2192.8,1602.6,2174.1,1602.6z"/>
	<path fill="#FFFFFF" d="M2297.3,1756.6v-31.1c15.8,11.6,33.1,17.5,52.1,17.5c25.4,0,38.1-8.5,38.1-25.4c0-4.8-1.1-8.9-3.3-12.3
		c-2.2-3.4-5.1-6.3-8.8-8.9c-3.7-2.6-8.1-4.9-13.1-7c-5-2.1-10.4-4.2-16.1-6.4c-8-3.2-15-6.4-21.1-9.6c-6.1-3.2-11.1-6.9-15.2-10.9
		c-4.1-4.1-7.1-8.7-9.2-13.9c-2.1-5.2-3.1-11.2-3.1-18.2c0-8.5,1.9-16,5.8-22.5c3.9-6.5,9.1-12,15.5-16.4c6.5-4.4,13.9-7.7,22.1-10
		c8.3-2.2,16.9-3.4,25.7-3.4c15.6,0,29.6,2.7,42,8.1v29.3c-13.3-8.7-28.6-13.1-45.9-13.1c-5.4,0-10.3,0.6-14.6,1.9
		c-4.4,1.2-8.1,3-11.2,5.2c-3.1,2.2-5.5,4.9-7.2,8c-1.7,3.1-2.6,6.6-2.6,10.3c0,4.7,0.9,8.6,2.6,11.8c1.7,3.2,4.2,6,7.5,8.5
		c3.3,2.5,7.3,4.7,12,6.7c4.7,2,10.1,4.2,16.1,6.5c8,3.1,15.2,6.2,21.5,9.4c6.4,3.2,11.8,6.9,16.2,10.9c4.5,4.1,7.9,8.7,10.3,14
		c2.4,5.3,3.6,11.6,3.6,18.9c0,8.9-2,16.7-5.9,23.3c-3.9,6.6-9.2,12.1-15.8,16.4c-6.6,4.4-14.2,7.6-22.8,9.7
		c-8.6,2.1-17.6,3.2-27,3.2C2327,1767.4,2310.9,1763.8,2297.3,1756.6z"/>
	<path fill="#FFFFFF" d="M2714.7,1763.1h-28.9v-30.7h-0.7c-13.4,23.3-34.1,34.9-62.1,34.9c-22.7,0-40.8-8.1-54.4-24.3
		c-13.6-16.2-20.4-38.2-20.4-66.1c0-29.9,7.5-53.8,22.6-71.8c15.1-18,35.1-27,60.2-27c24.8,0,42.9,9.8,54.2,29.3h0.7v-111.9h28.9
		V1763.1z M2685.8,1681.5v-26.6c0-14.6-4.8-26.9-14.5-37.1c-9.6-10.1-21.9-15.2-36.7-15.2c-17.6,0-31.5,6.5-41.6,19.4
		c-10.1,12.9-15.2,30.8-15.2,53.6c0,20.8,4.9,37.3,14.6,49.3c9.7,12.1,22.7,18.1,39.1,18.1c16.1,0,29.2-5.8,39.3-17.5
		S2685.8,1699.2,2685.8,1681.5z"/>
	<path fill="#FFFFFF" d="M2918.5,1680H2791c0.5,20.1,5.9,35.6,16.2,46.6c10.3,10.9,24.6,16.4,42.7,16.4c20.3,0,39.1-6.7,56.1-20.1
		v27.2c-15.9,11.5-36.9,17.3-63,17.3c-25.5,0-45.6-8.2-60.2-24.6c-14.6-16.4-21.9-39.5-21.9-69.3c0-28.1,8-51,23.9-68.7
		c15.9-17.7,35.7-26.6,59.4-26.6s41.9,7.6,54.9,22.9c12.9,15.3,19.4,36.5,19.4,63.7V1680z M2888.9,1655.5
		c-0.1-16.7-4.1-29.7-12.1-39c-7.9-9.3-19-13.9-33.1-13.9c-13.6,0-25.2,4.9-34.8,14.6c-9.5,9.8-15.4,22.5-17.6,38.3H2888.9z"/>
	<path fill="#FFFFFF" d="M3250.3,1660.8c0,71-32.1,106.6-96.2,106.6c-61.4,0-92.1-34.2-92.1-102.5v-154.7h29.6v152.8
		c0,51.9,21.9,77.8,65.6,77.8c42.2,0,63.3-25.1,63.3-75.2v-155.4h29.6V1660.8z"/>
	<path fill="#FFFFFF" d="M3298.6,1756.6v-31.1c15.8,11.6,33.1,17.5,52.1,17.5c25.4,0,38.1-8.5,38.1-25.4c0-4.8-1.1-8.9-3.3-12.3
		c-2.2-3.4-5.1-6.3-8.8-8.9c-3.7-2.6-8.1-4.9-13.1-7c-5-2.1-10.4-4.2-16.1-6.4c-8-3.2-15-6.4-21.1-9.6c-6.1-3.2-11.1-6.9-15.2-10.9
		c-4.1-4.1-7.1-8.7-9.2-13.9c-2.1-5.2-3.1-11.2-3.1-18.2c0-8.5,1.9-16,5.8-22.5c3.9-6.5,9.1-12,15.5-16.4c6.5-4.4,13.9-7.7,22.1-10
		c8.3-2.2,16.8-3.4,25.7-3.4c15.6,0,29.6,2.7,42,8.1v29.3c-13.3-8.7-28.6-13.1-45.9-13.1c-5.4,0-10.3,0.6-14.6,1.9
		c-4.4,1.2-8.1,3-11.2,5.2c-3.1,2.2-5.5,4.9-7.2,8c-1.7,3.1-2.6,6.6-2.6,10.3c0,4.7,0.9,8.6,2.6,11.8c1.7,3.2,4.2,6,7.5,8.5
		c3.3,2.5,7.3,4.7,12,6.7c4.7,2,10.1,4.2,16.1,6.5c8,3.1,15.2,6.2,21.5,9.4c6.4,3.2,11.8,6.9,16.2,10.9c4.5,4.1,7.9,8.7,10.3,14
		c2.4,5.3,3.6,11.6,3.6,18.9c0,8.9-2,16.7-5.9,23.3c-3.9,6.6-9.2,12.1-15.8,16.4c-6.6,4.4-14.2,7.6-22.8,9.7
		c-8.6,2.1-17.6,3.2-27,3.2C3328.4,1767.4,3312.2,1763.8,3298.6,1756.6z"/>
	<path fill="#FFFFFF" d="M3538.4,1767.4c-26.7,0-48-8.4-64-25.3c-15.9-16.9-23.9-39.3-23.9-67.1c0-30.3,8.3-54,24.9-71.1
		c16.6-17.1,39-25.6,67.2-25.6c26.9,0,48,8.3,63.1,24.9c15.1,16.6,22.7,39.6,22.7,69c0,28.8-8.1,51.9-24.4,69.3
		C3587.6,1758.7,3565.8,1767.4,3538.4,1767.4z M3540.5,1602.6c-18.6,0-33.3,6.3-44.1,19c-10.8,12.6-16.2,30.1-16.2,52.3
		c0,21.4,5.5,38.3,16.4,50.6c10.9,12.4,25.6,18.5,43.9,18.5c18.7,0,33.1-6.1,43.1-18.2c10.1-12.1,15.1-29.3,15.1-51.7
		c0-22.6-5-40-15.1-52.2C3573.6,1608.7,3559.2,1602.6,3540.5,1602.6z"/>
</g>
</svg>
