<?xml version="1.0" encoding="utf-8"?>
<!-- Generator: Adobe Illustrator 18.0.0, SVG Export Plug-In . SVG Version: 6.00 Build 0)  -->
<!DOCTYPE svg PUBLIC "-//W3C//DTD SVG 1.1//EN" "http://www.w3.org/Graphics/SVG/1.1/DTD/svg11.dtd">
<svg version="1.1" id="Camada_1" xmlns="http://www.w3.org/2000/svg" xmlns:xlink="http://www.w3.org/1999/xlink" x="0px" y="0px"
	 viewBox="0 0 1861 677.4" enable-background="new 0 0 1861 677.4" xml:space="preserve">
<path fill="#B9202D" d="M1861,677.4H0V0h1861V677.4z M39.7,637.7h1781.5V39.7H39.7V637.7z"/>
<g>
	<g>
		<path fill="#B9202D" d="M317.3,535.6l-159.6-353h78.1L327.8,383l91.6-200.4h78.1l-159.1,353H317.3z"/>
		<path fill="#B9202D" d="M916.5,182.6L801.7,406.2v129.4h-70.5V406.2L615.9,182.6H694l72.5,132.9l72-132.9H916.5z"/>
		<path fill="#B9202D" d="M1139.6,386.1c-11.6-3-33.2-8.6-53.4-22.2c-28.2-18.6-43.8-45.8-45.3-79.6c-1.5-28.2,7.6-52.9,25.7-72
			c26.2-27.2,64-34.7,82.1-34.7c51.4,0,80.1,18.6,105.7,35.2l11.6,7.6l-36.8,59.9l-12.6-8.1c-22.7-14.6-37.3-24.2-68-24.2
			c-4.5,0-22.2,3.5-31.2,13.1c-3,3-6.5,8.6-6,20.1c0.5,18.1,13.1,28.2,45.3,36.3c4,1,7,2,10.1,3c33.7,11.6,59.9,27.2,78.1,46.8
			c18.1,20.1,27.7,43.8,27.7,69c0,24.7-10.6,50.4-28.2,70c-20.6,23.2-49.3,36.3-81.1,36.3c-15.6,0-36.8-1-61.9-8.6
			c-31.7-10.1-59.9-27.7-84.1-53.4l51.4-48.3c37.3,39.8,79.1,39.8,94.7,39.8c29.2,0,38.8-26.7,38.8-35.8c0-19.1-21.7-36.8-58.4-49.4
			l-1.5-0.5L1139.6,386.1z"/>
		<path fill="#B9202D" d="M1648.8,253.1h-235.2v-70.5h235.2V253.1z M1413.6,318.6h194.9v70.5h-194.9V318.6z M1413.6,465.1h233.7
			v70.5h-233.7V465.1z"/>
	</g>
</g>
</svg>
