{
    "libiconv.dylib": 1,
    "AVFoundation.framework": 1,
    "CoreVideo.framework": 1,
    "QuartzCore.framework": 1,
    "AudioToolbox.framework": 2,
    "SystemConfiguration.framework": 1,
    "Security.framework": 1
}