{
    "prepare_queue": {
        "installed": [],
        "uninstalled": []
    },
    "config_munge": {
        "files": {
            "config.xml": {
                "parents": {
                    "/*": [
                        {
                            "xml": "<feature name=\"BarcodeScanner\"><param name=\"ios-package\" value=\"CDVBarcodeScanner\" /></feature>",
                            "count": 1
                        },
                        {
                            "xml": "<feature name=\"Clipboard\"><param name=\"ios-package\" value=\"CDVClipboard\" /></feature>",
                            "count": 1
                        },
                        {
                            "xml": "<feature name=\"AppPreferences\"><param name=\"ios-package\" value=\"AppPreferences\" /></feature>",
                            "count": 1
                        },
                        {
                            "xml": "<feature name=\"Notification\"><param name=\"ios-package\" value=\"CDVNotification\" /></feature>",
                            "count": 1
                        },
                        {
                            "xml": "<feature name=\"File\"><param name=\"ios-package\" value=\"CDVFile\" /><param name=\"onload\" value=\"true\" /></feature>",
                            "count": 1
                        },
                        {
                            "xml": "<feature name=\"Media\"><param name=\"ios-package\" value=\"CDVSound\" /></feature>",
                            "count": 1
                        },
                        {
                            "xml": "<feature name=\"NetworkStatus\"><param name=\"ios-package\" value=\"CDVConnection\" /></feature>",
                            "count": 1
                        },
                        {
                            "xml": "<feature name=\"SplashScreen\"><param name=\"ios-package\" value=\"CDVSplashScreen\" /><param name=\"onload\" value=\"true\" /></feature>",
                            "count": 1
                        },
                        {
                            "xml": "<feature name=\"Vibration\"><param name=\"ios-package\" value=\"CDVVibration\" /></feature>",
                            "count": 1
                        },
                        {
                            "xml": "<feature name=\"AES\"><param name=\"ios-package\" value=\"CDVAES\" /></feature>",
                            "count": 1
                        },
                        {
                            "xml": "<feature name=\"BIP32\"><param name=\"ios-package\" value=\"CDVBIP32\" /></feature>",
                            "count": 1
                        },
                        {
                            "xml": "<feature name=\"BIP38\"><param name=\"ios-package\" value=\"CDVBIP38\" /></feature>",
                            "count": 1
                        },
                        {
                            "xml": "<feature name=\"BIP39\"><param name=\"ios-package\" value=\"CDVBIP39\" /></feature>",
                            "count": 1
                        },
                        {
                            "xml": "<feature name=\"InAppBrowser\"><param name=\"ios-package\" value=\"CDVInAppBrowser\" /></feature>",
                            "count": 1
                        }
                    ]
                }
            }
        }
    },
    "installed_plugins": {
        "com.chariotsolutions.nfc.plugin": {
            "PACKAGE_NAME": "it.greenaddress.cordova"
        },
        "com.cordova.plugin.softkeyboard": {
            "PACKAGE_NAME": "it.greenaddress.cordova"
        },
        "com.phonegap.plugins.barcodescanner": {
            "PACKAGE_NAME": "it.greenaddress.cordova"
        },
        "com.ququplay.websocket.WebSocket": {
            "PACKAGE_NAME": "it.greenaddress.cordova"
        },
        "com.verso.cordova.clipboard": {
            "PACKAGE_NAME": "it.greenaddress.cordova"
        },
        "me.apla.cordova.app-preferences": {
            "PACKAGE_NAME": "it.greenaddress.cordova"
        },
        "org.apache.cordova.dialogs": {
            "PACKAGE_NAME": "it.greenaddress.cordova"
        },
        "org.apache.cordova.file": {
            "PACKAGE_NAME": "it.greenaddress.cordova"
        },
        "org.apache.cordova.media": {
            "PACKAGE_NAME": "it.greenaddress.cordova"
        },
        "org.apache.cordova.network-information": {
            "PACKAGE_NAME": "it.greenaddress.cordova"
        },
        "org.apache.cordova.splashscreen": {
            "PACKAGE_NAME": "it.greenaddress.cordova"
        },
        "org.apache.cordova.vibration": {
            "PACKAGE_NAME": "it.greenaddress.cordova"
        },
        "it.greenaddress.cordova": {
            "PACKAGE_NAME": "it.greenaddress.${PRODUCT_NAME:rfc1034identifier}"
        },
        "org.apache.cordova.inappbrowser": {
            "PACKAGE_NAME": "it.greenaddress.${PRODUCT_NAME:rfc1034identifier}"
        }
    },
    "dependent_plugins": {},
    "modules": [
        {
            "file": "plugins/com.chariotsolutions.nfc.plugin/www/phonegap-nfc.js",
            "id": "com.chariotsolutions.nfc.plugin.NFC",
            "pluginId": "com.chariotsolutions.nfc.plugin",
            "runs": true
        },
        {
            "file": "plugins/com.phonegap.plugins.barcodescanner/www/barcodescanner.js",
            "id": "com.phonegap.plugins.barcodescanner.BarcodeScanner",
            "pluginId": "com.phonegap.plugins.barcodescanner",
            "clobbers": [
                "cordova.plugins.barcodeScanner"
            ]
        },
        {
            "file": "plugins/com.verso.cordova.clipboard/www/clipboard.js",
            "id": "com.verso.cordova.clipboard.Clipboard",
            "pluginId": "com.verso.cordova.clipboard",
            "clobbers": [
                "cordova.plugins.clipboard"
            ]
        },
        {
            "file": "plugins/me.apla.cordova.app-preferences/www/apppreferences.js",
            "id": "me.apla.cordova.app-preferences.apppreferences",
            "pluginId": "me.apla.cordova.app-preferences",
            "clobbers": [
                "plugins.appPreferences"
            ]
        },
        {
            "file": "plugins/org.apache.cordova.dialogs/www/notification.js",
            "id": "org.apache.cordova.dialogs.notification",
            "pluginId": "org.apache.cordova.dialogs",
            "merges": [
                "navigator.notification"
            ]
        },
        {
            "file": "plugins/org.apache.cordova.file/www/DirectoryEntry.js",
            "id": "org.apache.cordova.file.DirectoryEntry",
            "pluginId": "org.apache.cordova.file",
            "clobbers": [
                "window.DirectoryEntry"
            ]
        },
        {
            "file": "plugins/org.apache.cordova.file/www/DirectoryReader.js",
            "id": "org.apache.cordova.file.DirectoryReader",
            "pluginId": "org.apache.cordova.file",
            "clobbers": [
                "window.DirectoryReader"
            ]
        },
        {
            "file": "plugins/org.apache.cordova.file/www/Entry.js",
            "id": "org.apache.cordova.file.Entry",
            "pluginId": "org.apache.cordova.file",
            "clobbers": [
                "window.Entry"
            ]
        },
        {
            "file": "plugins/org.apache.cordova.file/www/File.js",
            "id": "org.apache.cordova.file.File",
            "pluginId": "org.apache.cordova.file",
            "clobbers": [
                "window.File"
            ]
        },
        {
            "file": "plugins/org.apache.cordova.file/www/FileEntry.js",
            "id": "org.apache.cordova.file.FileEntry",
            "pluginId": "org.apache.cordova.file",
            "clobbers": [
                "window.FileEntry"
            ]
        },
        {
            "file": "plugins/org.apache.cordova.file/www/FileError.js",
            "id": "org.apache.cordova.file.FileError",
            "pluginId": "org.apache.cordova.file",
            "clobbers": [
                "window.FileError"
            ]
        },
        {
            "file": "plugins/org.apache.cordova.file/www/FileReader.js",
            "id": "org.apache.cordova.file.FileReader",
            "pluginId": "org.apache.cordova.file",
            "clobbers": [
                "window.FileReader"
            ]
        },
        {
            "file": "plugins/org.apache.cordova.file/www/FileSystem.js",
            "id": "org.apache.cordova.file.FileSystem",
            "pluginId": "org.apache.cordova.file",
            "clobbers": [
                "window.FileSystem"
            ]
        },
        {
            "file": "plugins/org.apache.cordova.file/www/FileUploadOptions.js",
            "id": "org.apache.cordova.file.FileUploadOptions",
            "pluginId": "org.apache.cordova.file",
            "clobbers": [
                "window.FileUploadOptions"
            ]
        },
        {
            "file": "plugins/org.apache.cordova.file/www/FileUploadResult.js",
            "id": "org.apache.cordova.file.FileUploadResult",
            "pluginId": "org.apache.cordova.file",
            "clobbers": [
                "window.FileUploadResult"
            ]
        },
        {
            "file": "plugins/org.apache.cordova.file/www/FileWriter.js",
            "id": "org.apache.cordova.file.FileWriter",
            "pluginId": "org.apache.cordova.file",
            "clobbers": [
                "window.FileWriter"
            ]
        },
        {
            "file": "plugins/org.apache.cordova.file/www/Flags.js",
            "id": "org.apache.cordova.file.Flags",
            "pluginId": "org.apache.cordova.file",
            "clobbers": [
                "window.Flags"
            ]
        },
        {
            "file": "plugins/org.apache.cordova.file/www/LocalFileSystem.js",
            "id": "org.apache.cordova.file.LocalFileSystem",
            "pluginId": "org.apache.cordova.file",
            "clobbers": [
                "window.LocalFileSystem"
            ],
            "merges": [
                "window"
            ]
        },
        {
            "file": "plugins/org.apache.cordova.file/www/Metadata.js",
            "id": "org.apache.cordova.file.Metadata",
            "pluginId": "org.apache.cordova.file",
            "clobbers": [
                "window.Metadata"
            ]
        },
        {
            "file": "plugins/org.apache.cordova.file/www/ProgressEvent.js",
            "id": "org.apache.cordova.file.ProgressEvent",
            "pluginId": "org.apache.cordova.file",
            "clobbers": [
                "window.ProgressEvent"
            ]
        },
        {
            "file": "plugins/org.apache.cordova.file/www/requestFileSystem.js",
            "id": "org.apache.cordova.file.requestFileSystem",
            "pluginId": "org.apache.cordova.file",
            "clobbers": [
                "window.requestFileSystem"
            ]
        },
        {
            "file": "plugins/org.apache.cordova.file/www/resolveLocalFileSystemURI.js",
            "id": "org.apache.cordova.file.resolveLocalFileSystemURI",
            "pluginId": "org.apache.cordova.file",
            "merges": [
                "window"
            ]
        },
        {
            "file": "plugins/org.apache.cordova.file/www/ios/FileSystem.js",
            "id": "org.apache.cordova.file.iosFileSystem",
            "pluginId": "org.apache.cordova.file",
            "merges": [
                "window.FileSystem"
            ]
        },
        {
            "file": "plugins/org.apache.cordova.media/www/MediaError.js",
            "id": "org.apache.cordova.media.MediaError",
            "pluginId": "org.apache.cordova.media",
            "clobbers": [
                "window.MediaError"
            ]
        },
        {
            "file": "plugins/org.apache.cordova.media/www/Media.js",
            "id": "org.apache.cordova.media.Media",
            "pluginId": "org.apache.cordova.media",
            "clobbers": [
                "window.Media"
            ]
        },
        {
            "file": "plugins/org.apache.cordova.network-information/www/network.js",
            "id": "org.apache.cordova.network-information.network",
            "pluginId": "org.apache.cordova.network-information",
            "clobbers": [
                "navigator.connection",
                "navigator.network.connection"
            ]
        },
        {
            "file": "plugins/org.apache.cordova.network-information/www/Connection.js",
            "id": "org.apache.cordova.network-information.Connection",
            "pluginId": "org.apache.cordova.network-information",
            "clobbers": [
                "Connection"
            ]
        },
        {
            "file": "plugins/org.apache.cordova.splashscreen/www/splashscreen.js",
            "id": "org.apache.cordova.splashscreen.SplashScreen",
            "pluginId": "org.apache.cordova.splashscreen",
            "clobbers": [
                "navigator.splashscreen"
            ]
        },
        {
            "file": "plugins/org.apache.cordova.vibration/www/vibration.js",
            "id": "org.apache.cordova.vibration.notification",
            "pluginId": "org.apache.cordova.vibration",
            "merges": [
                "navigator.notification"
            ]
        },
        {
            "file": "plugins/org.apache.cordova.inappbrowser/www/inappbrowser.js",
            "id": "org.apache.cordova.inappbrowser.inappbrowser",
            "pluginId": "org.apache.cordova.inappbrowser",
            "clobbers": [
                "window.open"
            ]
        }
    ],
    "plugin_metadata": {
        "com.chariotsolutions.nfc.plugin": "0.5.0",
        "com.cordova.plugin.softkeyboard": "1.0.2",
        "com.phonegap.plugins.barcodescanner": "1.0.1",
        "com.ququplay.websocket.WebSocket": "0.1.0",
        "com.verso.cordova.clipboard": "0.1.0",
        "me.apla.cordova.app-preferences": "0.4.0",
        "org.apache.cordova.dialogs": "0.2.8",
        "org.apache.cordova.file": "1.1.0",
        "org.apache.cordova.media": "0.2.10",
        "org.apache.cordova.network-information": "0.2.5",
        "org.apache.cordova.splashscreen": "0.2.7",
        "org.apache.cordova.vibration": "0.3.9-dev",
        "it.greenaddress.cordova": "0.0.0",
        "org.apache.cordova.inappbrowser": "0.5.0"
    }
}